{
  "project_info": {
    "project_number": "556324716617",
    "firebase_url": "https://reservi.firebaseio.com",
    "project_id": "reservi",
    "storage_bucket": "reservi.appspot.com"
  },
  "client": [
    {
      "client_info": {
        "mobilesdk_app_id": "1:556324716617:android:4c84fc19d12437548f7f98",
        "android_client_info": {
          "package_name": "reservi.com.br"
        }
      },
      "oauth_client": [
        {
          "client_id": "556324716617-jl7uao8qm7b9e59mgsmf8fed0s0fm3rc.apps.googleusercontent.com",
          "client_type": 3
        }
      ],
      "api_key": [
        {
          "current_key": "AIzaSyDc8vkCNlX86iYz8ykqfUZPxKOBP-MAsUI"
        }
      ],
      "services": {
        "appinvite_service": {
          "other_platform_oauth_client": [
            {
              "client_id": "556324716617-jl7uao8qm7b9e59mgsmf8fed0s0fm3rc.apps.googleusercontent.com",
              "client_type": 3
            }
          ]
        }
      }
    }
  ],
  "configuration_version": "1"
}